{
  "type": "service_account",
  "project_id": "moviemate-287307",
  "private_key_id": "e9246d2d4e3d163d578f4699baaf62e811fffd4a",
  "private_key": "-----BEGIN PRIVATE KEY-----\nMIIEvQIBADANBgkqhkiG9w0BAQEFAASCBKcwggSjAgEAAoIBAQCN82FIdFpVRuJO\n4vUZt3ipBSo1+y2MrdauRnr5KAG+TdRMC4gY1FKAe1frtILdHjwO2iJ5Rk1uSJZ3\nrQhdl2MOrDWd0C2PCuiEKTk9VWoVegNbfSD2cMD7rDagcEXG7MnPKs1LZuEy9ipq\nzGozZqniOu0Lddt5PcQ4MP/bgctnnhBGyh9i7U/4tyNCWmdQjkGZ/uTvEX4laVWh\nt7XlU/hhjuvbAlh++gUyvhhumXSyTk8/JTEu97bl5FDhXTVHev8h1GJGoju9mXpQ\nFeN0ewrw6e7/tkvVCWVUxBQRgpU+g7hv9+x5+vNTREQZiePos6pdVHzW3XgMGTUr\nbHCpkPVtAgMBAAECggEAArWGIgaccbuyVnyU3mqGuj0Pvut+BU0NB5LvRmGJ1Pqx\nxkjDDmxA7dRMy4IMrFEnJsZpeYSKtkPa4UpTWkvpF07YkBw4vl3gLaOGxOGkLmg/\nd6fF8QYaXMM+4KV7423B9Tr1I48BVcJmcVbY4QXA0ME8pGcZqvDvlX3z6BnMSrwt\nfw53R290GvGSQaqtivV4+WzOtUfwAenBHUv2+h0JZXPnWlIW7MrT1QxVrl8H5LYz\nGK4XGoD0wr0i/5Rpq3e05JVjd+7AePBwUxYIncZNnUm0mLvzSrXxjQmkM3sFoCTs\nE3qGoDkRrVGNISrQ+5iZBt8BBMRwxLV6PSuee7eosQKBgQDALnRAmAyYk0kuQmUY\ndxxHbtIq3/KaGTvdeCpy6CaQMscjhk4mWqDj+nxr4CL5OVjv8EfNVdhO8jnSLMKO\nVEUyGZMflJ3ZAP79zZO/7x26e64A7LYk/cOuv5o7B3RbvGLFCl26N7mJahBQpZcZ\nNInxJn8GCq8X4Z7X8V9Cq9Fm8QKBgQC9FsHE0ZWkiSkk/8RY5tkzCeh9qUOSQiin\nYZDjzE7Rit/5aFBDW+rit2DKCf5IWxuVeEYTVu+PT/H7J/U4zpkmKTOWceh3eOy2\nbakJg9iNe/lh4fiFrQJsVwErpxmC5vk/3Tccdf+7maOc7py+2bRrFcWs4REMXwea\nI54CLC5OPQKBgE0I0fSqfjISp/zxBFEgPaeslnY1OqvmfYazCmDxCbQ3hneI+H6L\nSX7ZA1LCj4JTKIFVUZLPXFuY4PCMnJgs02fXtI+uJO+9ZHkcFKOVF9eOiBs6x3Bg\ngDXl+865mDzFcNoG47cnaynX6B5LohuqYbjWc4hadAEgoWlyCXtSICghAoGAHImp\ntu22uv1kc0wSsyQsFbLiHs0EALfxcMmd13OHVcKy6O5gZrohqhPpDLUTZpIxiI59\nbP/K6gMzzycJsIglvweq3ILWhel/OE02nNQEQ945FhfHrU0eN4GuEIuIoyP+7C+T\n2LzKWuLmOZIdoAQ1YZAIpH3XV9mjyRSlDUjjuDUCgYEAme12/KElQZycUKUPstG0\nClY+c+oCVKO3suaxA6J3Gz7Bic6q0LQ0eIwhLXaWnvVvyE/VqBYdfvA3mCaBpmDe\njIXsV+QyjGGRfbF/eio0bB8dZgcbdAGj0UgJdwXJgyqph0PxCU7L6id8sf9GGv9Z\nun80Ba4vtX7PBMbfm3PS6xM=\n-----END PRIVATE KEY-----\n",
  "client_email": "app-distribution-admin@moviemate-287307.iam.gserviceaccount.com",
  "client_id": "106816141530848380127",
  "auth_uri": "https://accounts.google.com/o/oauth2/auth",
  "token_uri": "https://oauth2.googleapis.com/token",
  "auth_provider_x509_cert_url": "https://www.googleapis.com/oauth2/v1/certs",
  "client_x509_cert_url": "https://www.googleapis.com/robot/v1/metadata/x509/app-distribution-admin%40moviemate-287307.iam.gserviceaccount.com"
}
